%YAML 1.1
%TAG !u! tag:unity3d.com,2011:
--- !u!114 &11400000
MonoBehaviour:
  m_ObjectHideFlags: 0
  m_CorrespondingSourceObject: {fileID: 0}
  m_PrefabInstance: {fileID: 0}
  m_PrefabAsset: {fileID: 0}
  m_GameObject: {fileID: 0}
  m_Enabled: 1
  m_EditorHideFlags: 0
  m_Script: {fileID: 11500000, guid: a86d85b90184f7d43abb9aa4c4e95689, type: 3}
  m_Name: GeneralData
  m_EditorClassIdentifier: 
  _numScoreEnemy: 50
  _frequencyRandomDashes: {x: 1, y: 3}
